<?xml version="1.0" encoding="UTF-8"?>
<session version="1.0">
<refactoring comment="Rename resource &apos;manual_control_motor/open_loop_control_motor.c&apos; to &apos;manual_control_motor.c&apos;" description="Rename resource &apos;open_loop_control_motor.c&apos;" flags="7" id="org.eclipse.ltk.core.refactoring.rename.resource" input="open_loop_control_motor.c" name="manual_control_motor.c" stamp="1537154719550" updateReferences="true"/>
</session>